(kicad_sch
	(version 20240417)
	(generator "eeschema")
	(generator_version "8.99")
	(uuid "72af7883-b930-45a7-b8c1-7781d1afdd37")
	(paper "A4")
	(lib_symbols
		(symbol "Device:R"
			(pin_numbers hide)
			(pin_names
				(offset 0)
			)
			(exclude_from_sim no)
			(in_bom yes)
			(on_board yes)
			(property "Reference" "R"
				(at 2.032 0 90)
				(effects
					(font
						(size 1.27 1.27)
					)
				)
			)
			(property "Value" "R"
				(at 0 0 90)
				(effects
					(font
						(size 1.27 1.27)
					)
				)
			)
			(property "Footprint" ""
				(at -1.778 0 90)
				(effects
					(font
						(size 1.27 1.27)
					)
					(hide yes)
				)
			)
			(property "Datasheet" "~"
				(at 0 0 0)
				(effects
					(font
						(size 1.27 1.27)
					)
					(hide yes)
				)
			)
			(property "Description" "Resistor"
				(at 0 0 0)
				(effects
					(font
						(size 1.27 1.27)
					)
					(hide yes)
				)
			)
			(property "ki_keywords" "R res resistor"
				(at 0 0 0)
				(effects
					(font
						(size 1.27 1.27)
					)
					(hide yes)
				)
			)
			(property "ki_fp_filters" "R_*"
				(at 0 0 0)
				(effects
					(font
						(size 1.27 1.27)
					)
					(hide yes)
				)
			)
			(symbol "R_0_1"
				(rectangle
					(start -1.016 -2.54)
					(end 1.016 2.54)
					(stroke
						(width 0.254)
						(type default)
					)
					(fill
						(type none)
					)
				)
			)
			(symbol "R_1_1"
				(pin passive line
					(at 0 3.81 270)
					(length 1.27)
					(name "~"
						(effects
							(font
								(size 1.27 1.27)
							)
						)
					)
					(number "1"
						(effects
							(font
								(size 1.27 1.27)
							)
						)
					)
				)
				(pin passive line
					(at 0 -3.81 90)
					(length 1.27)
					(name "~"
						(effects
							(font
								(size 1.27 1.27)
							)
						)
					)
					(number "2"
						(effects
							(font
								(size 1.27 1.27)
							)
						)
					)
				)
			)
		)
	)
	(no_connect
		(at 106.68 71.12)
		(uuid "2f717211-60fa-4046-b14f-c148c1bebb31")
	)
	(no_connect
		(at 154.94 71.12)
		(uuid "e58e3d56-33f2-47c1-8169-9b603a68c30f")
	)
	(wire
		(pts
			(xy 114.3 71.12) (xy 147.32 71.12)
		)
		(stroke
			(width 0)
			(type default)
		)
		(uuid "2d14d2f0-6ae7-41c8-8699-c57748f8f4ae")
	)
	(rule_area
		(polyline
			(pts
				(xy 121.92 62.23) (xy 137.16 62.23) (xy 137.16 73.66) (xy 135.89 74.93) (xy 123.19 74.93) (xy 121.92 73.66)
			)
			(stroke
				(width 0)
				(type dash)
			)
			(fill
				(type none)
			)
			(uuid 826526a6-b643-4832-8cb3-7693aac87471)
		)
	)
	(netclass_flag ""
		(length 2.54)
		(shape round)
		(at 133.35 62.23 0)
		(fields_autoplaced yes)
		(effects
			(font
				(size 1.27 1.27)
			)
			(justify left bottom)
		)
		(uuid "0318db31-1e4c-4d69-8534-0e5f3ee9c7eb")
		(property "Netclass" "CLASS2"
			(at 134.0485 59.69 0)
			(effects
				(font
					(size 1.27 1.27)
					(italic yes)
				)
				(justify left)
			)
		)
	)
	(netclass_flag ""
		(length 2.54)
		(shape round)
		(at 124.46 62.23 0)
		(fields_autoplaced yes)
		(effects
			(font
				(size 1.27 1.27)
			)
			(justify left bottom)
		)
		(uuid "74dc4bc7-6913-49ba-a2f3-bcdc39c3019f")
		(property "Netclass" "CLASS1"
			(at 125.1585 59.69 0)
			(effects
				(font
					(size 1.27 1.27)
					(italic yes)
				)
				(justify left)
			)
		)
	)
	(symbol
		(lib_id "Device:R")
		(at 151.13 71.12 270)
		(unit 1)
		(exclude_from_sim no)
		(in_bom yes)
		(on_board yes)
		(dnp no)
		(fields_autoplaced yes)
		(uuid "4f5c367d-1c08-48f1-86dc-e95b0140a51b")
		(property "Reference" "R2"
			(at 151.13 64.77 90)
			(effects
				(font
					(size 1.27 1.27)
				)
			)
		)
		(property "Value" "R"
			(at 151.13 67.31 90)
			(effects
				(font
					(size 1.27 1.27)
				)
			)
		)
		(property "Footprint" ""
			(at 151.13 69.342 90)
			(effects
				(font
					(size 1.27 1.27)
				)
				(hide yes)
			)
		)
		(property "Datasheet" "~"
			(at 151.13 71.12 0)
			(effects
				(font
					(size 1.27 1.27)
				)
				(hide yes)
			)
		)
		(property "Description" "Resistor"
			(at 151.13 71.12 0)
			(effects
				(font
					(size 1.27 1.27)
				)
				(hide yes)
			)
		)
		(pin "1"
			(uuid "dbe85168-ed53-4e8a-8c45-277d6c150cde")
		)
		(pin "2"
			(uuid "4c070690-f1aa-48d2-a083-8c7fe39df9c2")
		)
		(instances
			(project "RuleAreaTwoNetclassDirectives"
				(path "/72af7883-b930-45a7-b8c1-7781d1afdd37"
					(reference "R2")
					(unit 1)
				)
			)
		)
	)
	(symbol
		(lib_id "Device:R")
		(at 110.49 71.12 270)
		(unit 1)
		(exclude_from_sim no)
		(in_bom yes)
		(on_board yes)
		(dnp no)
		(fields_autoplaced yes)
		(uuid "7848d115-602f-44c3-b980-c1e03934ea7e")
		(property "Reference" "R1"
			(at 110.49 64.77 90)
			(effects
				(font
					(size 1.27 1.27)
				)
			)
		)
		(property "Value" "R"
			(at 110.49 67.31 90)
			(effects
				(font
					(size 1.27 1.27)
				)
			)
		)
		(property "Footprint" ""
			(at 110.49 69.342 90)
			(effects
				(font
					(size 1.27 1.27)
				)
				(hide yes)
			)
		)
		(property "Datasheet" "~"
			(at 110.49 71.12 0)
			(effects
				(font
					(size 1.27 1.27)
				)
				(hide yes)
			)
		)
		(property "Description" "Resistor"
			(at 110.49 71.12 0)
			(effects
				(font
					(size 1.27 1.27)
				)
				(hide yes)
			)
		)
		(pin "1"
			(uuid "84a25105-1263-4adf-a0a5-a2bdf51e736e")
		)
		(pin "2"
			(uuid "4d2f1a67-27d6-4ef0-a95f-9a34d0373e7d")
		)
		(instances
			(project "RuleAreaTwoNetclassDirectives"
				(path "/72af7883-b930-45a7-b8c1-7781d1afdd37"
					(reference "R1")
					(unit 1)
				)
			)
		)
	)
	(sheet_instances
		(path "/"
			(page "1")
		)
	)
)
